<mxfile host="app.diagrams.net" modified="2024-03-13T16:40:09.651Z" agent="Mozilla/5.0 (X11; Linux x86_64; rv:109.0) Gecko/20100101 Firefox/112.0" etag="cA7L_6_xNpDs9HleoOSx" version="24.0.5" type="device">
  <diagram name="Page-1" id="c4acf3e9-155e-7222-9cf6-157b1a14988f">
    <mxGraphModel dx="1674" dy="790" grid="1" gridSize="10" guides="1" tooltips="1" connect="1" arrows="1" fold="1" page="1" pageScale="1" pageWidth="850" pageHeight="1100" background="none" math="0" shadow="0">
      <root>
        <mxCell id="0" />
        <mxCell id="1" parent="0" />
        <mxCell id="17acba5748e5396b-1" value="app" style="shape=umlFrame;whiteSpace=wrap;html=1;rounded=0;shadow=0;comic=0;labelBackgroundColor=none;strokeWidth=1;fontFamily=Verdana;fontSize=10;align=center;" parent="1" vertex="1">
          <mxGeometry x="230" y="20" width="600" height="790" as="geometry" />
        </mxCell>
        <mxCell id="17acba5748e5396b-20" value="Utilisateur" style="swimlane;html=1;fontStyle=0;childLayout=stackLayout;horizontal=1;startSize=26;fillColor=none;horizontalStack=0;resizeParent=1;resizeLast=0;collapsible=1;marginBottom=0;swimlaneFillColor=#ffffff;rounded=0;shadow=0;comic=0;labelBackgroundColor=none;strokeWidth=1;fontFamily=Verdana;fontSize=10;align=center;" parent="1" vertex="1">
          <mxGeometry x="490" y="850" width="160" height="130" as="geometry" />
        </mxCell>
        <mxCell id="17acba5748e5396b-24" value="- user : vachar(50)" style="text;html=1;strokeColor=none;fillColor=none;align=left;verticalAlign=top;spacingLeft=4;spacingRight=4;whiteSpace=wrap;overflow=hidden;rotatable=0;points=[[0,0.5],[1,0.5]];portConstraint=eastwest;" parent="17acba5748e5396b-20" vertex="1">
          <mxGeometry y="26" width="160" height="26" as="geometry" />
        </mxCell>
        <mxCell id="17acba5748e5396b-26" value="- mdp : vachar(50)" style="text;html=1;strokeColor=none;fillColor=none;align=left;verticalAlign=top;spacingLeft=4;spacingRight=4;whiteSpace=wrap;overflow=hidden;rotatable=0;points=[[0,0.5],[1,0.5]];portConstraint=eastwest;" parent="17acba5748e5396b-20" vertex="1">
          <mxGeometry y="52" width="160" height="26" as="geometry" />
        </mxCell>
        <mxCell id="2lb5YKG_LQ6kQNG7Jbou-44" value="" style="endArrow=block;startArrow=block;endFill=1;startFill=1;html=1;rounded=0;exitX=1.015;exitY=0.833;exitDx=0;exitDy=0;exitPerimeter=0;" parent="17acba5748e5396b-20" source="2lb5YKG_LQ6kQNG7Jbou-40" edge="1">
          <mxGeometry width="160" relative="1" as="geometry">
            <mxPoint x="-90" y="70" as="sourcePoint" />
            <mxPoint y="70" as="targetPoint" />
          </mxGeometry>
        </mxCell>
        <mxCell id="2lb5YKG_LQ6kQNG7Jbou-6" value="- id_utilisateur : int(11)" style="text;html=1;strokeColor=none;fillColor=none;align=left;verticalAlign=top;spacingLeft=4;spacingRight=4;whiteSpace=wrap;overflow=hidden;rotatable=0;points=[[0,0.5],[1,0.5]];portConstraint=eastwest;" parent="17acba5748e5396b-20" vertex="1">
          <mxGeometry y="78" width="160" height="26" as="geometry" />
        </mxCell>
        <mxCell id="2lb5YKG_LQ6kQNG7Jbou-7" value="- id_groupe : int(11)" style="text;html=1;strokeColor=none;fillColor=none;align=left;verticalAlign=top;spacingLeft=4;spacingRight=4;whiteSpace=wrap;overflow=hidden;rotatable=0;points=[[0,0.5],[1,0.5]];portConstraint=eastwest;" parent="17acba5748e5396b-20" vertex="1">
          <mxGeometry y="104" width="160" height="26" as="geometry" />
        </mxCell>
        <mxCell id="2lb5YKG_LQ6kQNG7Jbou-2" value="Logistique" style="shape=umlActor;verticalLabelPosition=bottom;verticalAlign=top;html=1;strokeWidth=2;" parent="1" vertex="1">
          <mxGeometry x="80" y="340" width="40" height="80" as="geometry" />
        </mxCell>
        <mxCell id="2lb5YKG_LQ6kQNG7Jbou-12" value="Utilsateur sans compte" style="shape=umlActor;verticalLabelPosition=bottom;verticalAlign=top;html=1;strokeWidth=2;" parent="1" vertex="1">
          <mxGeometry x="60" y="170" width="40" height="80" as="geometry" />
        </mxCell>
        <mxCell id="2lb5YKG_LQ6kQNG7Jbou-13" value="&lt;div&gt;&lt;b&gt;Créer un compte&lt;/b&gt;&lt;/div&gt;" style="ellipse;whiteSpace=wrap;html=1;" parent="1" vertex="1">
          <mxGeometry x="260" y="70" width="140" height="70" as="geometry" />
        </mxCell>
        <mxCell id="2lb5YKG_LQ6kQNG7Jbou-24" value="création de compte et attribution d&#39;un groupe" style="ellipse;whiteSpace=wrap;html=1;" parent="1" vertex="1">
          <mxGeometry x="670" y="60" width="140" height="70" as="geometry" />
        </mxCell>
        <mxCell id="2lb5YKG_LQ6kQNG7Jbou-30" value="" style="endArrow=none;dashed=1;html=1;rounded=0;exitX=0.979;exitY=0.657;exitDx=0;exitDy=0;exitPerimeter=0;entryX=0.029;entryY=0.414;entryDx=0;entryDy=0;entryPerimeter=0;" parent="1" source="2lb5YKG_LQ6kQNG7Jbou-13" edge="1" target="RJ9A-keqmbLxg_G6f0zQ-29">
          <mxGeometry width="50" height="50" relative="1" as="geometry">
            <mxPoint x="420" y="270" as="sourcePoint" />
            <mxPoint x="470" y="220" as="targetPoint" />
          </mxGeometry>
        </mxCell>
        <mxCell id="2lb5YKG_LQ6kQNG7Jbou-32" value="Groupe" style="swimlane;html=1;fontStyle=0;childLayout=stackLayout;horizontal=1;startSize=26;fillColor=none;horizontalStack=0;resizeParent=1;resizeLast=0;collapsible=1;marginBottom=0;swimlaneFillColor=#ffffff;rounded=0;shadow=0;comic=0;labelBackgroundColor=none;strokeWidth=1;fontFamily=Verdana;fontSize=10;align=center;" parent="1" vertex="1">
          <mxGeometry x="170" y="850" width="200" height="122" as="geometry" />
        </mxCell>
        <mxCell id="2lb5YKG_LQ6kQNG7Jbou-33" value="- Administrateur : int(11)" style="text;html=1;strokeColor=none;fillColor=none;align=left;verticalAlign=top;spacingLeft=4;spacingRight=4;whiteSpace=wrap;overflow=hidden;rotatable=0;points=[[0,0.5],[1,0.5]];portConstraint=eastwest;" parent="2lb5YKG_LQ6kQNG7Jbou-32" vertex="1">
          <mxGeometry y="26" width="200" height="24" as="geometry" />
        </mxCell>
        <mxCell id="2lb5YKG_LQ6kQNG7Jbou-40" value="- Ressources Humaines : int(11)" style="text;html=1;strokeColor=none;fillColor=none;align=left;verticalAlign=top;spacingLeft=4;spacingRight=4;whiteSpace=wrap;overflow=hidden;rotatable=0;points=[[0,0.5],[1,0.5]];portConstraint=eastwest;" parent="2lb5YKG_LQ6kQNG7Jbou-32" vertex="1">
          <mxGeometry y="50" width="200" height="24" as="geometry" />
        </mxCell>
        <mxCell id="2lb5YKG_LQ6kQNG7Jbou-41" value="- Logistique : int(11)" style="text;html=1;strokeColor=none;fillColor=none;align=left;verticalAlign=top;spacingLeft=4;spacingRight=4;whiteSpace=wrap;overflow=hidden;rotatable=0;points=[[0,0.5],[1,0.5]];portConstraint=eastwest;" parent="2lb5YKG_LQ6kQNG7Jbou-32" vertex="1">
          <mxGeometry y="74" width="200" height="24" as="geometry" />
        </mxCell>
        <mxCell id="2lb5YKG_LQ6kQNG7Jbou-42" value="- Informatique : int(11)" style="text;html=1;strokeColor=none;fillColor=none;align=left;verticalAlign=top;spacingLeft=4;spacingRight=4;whiteSpace=wrap;overflow=hidden;rotatable=0;points=[[0,0.5],[1,0.5]];portConstraint=eastwest;" parent="2lb5YKG_LQ6kQNG7Jbou-32" vertex="1">
          <mxGeometry y="98" width="200" height="24" as="geometry" />
        </mxCell>
        <mxCell id="q-cRQFLM8DBfB2CO9hSA-1" value="&lt;b&gt;Authentification&lt;/b&gt;" style="ellipse;whiteSpace=wrap;html=1;" parent="1" vertex="1">
          <mxGeometry x="260" y="160" width="140" height="70" as="geometry" />
        </mxCell>
        <mxCell id="q-cRQFLM8DBfB2CO9hSA-2" value="" style="endArrow=none;dashed=1;html=1;dashPattern=1 3;strokeWidth=2;rounded=0;exitX=0;exitY=0.5;exitDx=0;exitDy=0;" parent="1" source="q-cRQFLM8DBfB2CO9hSA-1" edge="1">
          <mxGeometry width="50" height="50" relative="1" as="geometry">
            <mxPoint x="400" y="440" as="sourcePoint" />
            <mxPoint x="110" y="220" as="targetPoint" />
          </mxGeometry>
        </mxCell>
        <mxCell id="q-cRQFLM8DBfB2CO9hSA-3" value="Vérifie les données dans la BDD &quot;Utilisateurs&quot;" style="ellipse;whiteSpace=wrap;html=1;" parent="1" vertex="1">
          <mxGeometry x="440" y="160" width="140" height="70" as="geometry" />
        </mxCell>
        <mxCell id="q-cRQFLM8DBfB2CO9hSA-4" value="" style="endArrow=none;dashed=1;html=1;rounded=0;entryX=0;entryY=0.5;entryDx=0;entryDy=0;" parent="1" target="q-cRQFLM8DBfB2CO9hSA-3" edge="1" source="q-cRQFLM8DBfB2CO9hSA-1">
          <mxGeometry width="50" height="50" relative="1" as="geometry">
            <mxPoint x="410" y="333" as="sourcePoint" />
            <mxPoint x="473" y="317" as="targetPoint" />
          </mxGeometry>
        </mxCell>
        <mxCell id="q-cRQFLM8DBfB2CO9hSA-5" value="connecte l&#39;employé a son compte" style="ellipse;whiteSpace=wrap;html=1;" parent="1" vertex="1">
          <mxGeometry x="640" y="150" width="140" height="70" as="geometry" />
        </mxCell>
        <mxCell id="q-cRQFLM8DBfB2CO9hSA-7" value="" style="endArrow=none;dashed=1;html=1;rounded=0;" parent="1" edge="1">
          <mxGeometry width="50" height="50" relative="1" as="geometry">
            <mxPoint x="580" y="195" as="sourcePoint" />
            <mxPoint x="650" y="180" as="targetPoint" />
          </mxGeometry>
        </mxCell>
        <mxCell id="RJ9A-keqmbLxg_G6f0zQ-1" value="" style="endArrow=none;dashed=1;html=1;dashPattern=1 3;strokeWidth=2;rounded=0;" edge="1" parent="1" source="2lb5YKG_LQ6kQNG7Jbou-13">
          <mxGeometry width="50" height="50" relative="1" as="geometry">
            <mxPoint x="270" y="235" as="sourcePoint" />
            <mxPoint x="110" y="210" as="targetPoint" />
          </mxGeometry>
        </mxCell>
        <mxCell id="RJ9A-keqmbLxg_G6f0zQ-3" value="Ressources Humaines" style="shape=umlActor;verticalLabelPosition=bottom;verticalAlign=top;html=1;strokeWidth=2;" vertex="1" parent="1">
          <mxGeometry x="80" y="455" width="40" height="80" as="geometry" />
        </mxCell>
        <mxCell id="RJ9A-keqmbLxg_G6f0zQ-6" value="&lt;b&gt;Authentification&lt;/b&gt;" style="ellipse;whiteSpace=wrap;html=1;" vertex="1" parent="1">
          <mxGeometry x="280" y="480" width="140" height="70" as="geometry" />
        </mxCell>
        <mxCell id="RJ9A-keqmbLxg_G6f0zQ-8" value="" style="endArrow=none;dashed=1;html=1;dashPattern=1 3;strokeWidth=2;rounded=0;" edge="1" parent="1" source="RJ9A-keqmbLxg_G6f0zQ-6">
          <mxGeometry width="50" height="50" relative="1" as="geometry">
            <mxPoint x="260" y="360" as="sourcePoint" />
            <mxPoint x="130" y="360" as="targetPoint" />
          </mxGeometry>
        </mxCell>
        <mxCell id="RJ9A-keqmbLxg_G6f0zQ-11" value="&lt;b&gt;Consultation des actualités &lt;br&gt;&lt;/b&gt;" style="ellipse;whiteSpace=wrap;html=1;" vertex="1" parent="1">
          <mxGeometry x="440" y="455" width="120" height="60" as="geometry" />
        </mxCell>
        <mxCell id="RJ9A-keqmbLxg_G6f0zQ-12" value="" style="endArrow=none;dashed=1;html=1;dashPattern=1 3;strokeWidth=2;rounded=0;" edge="1" parent="1" source="RJ9A-keqmbLxg_G6f0zQ-6">
          <mxGeometry width="50" height="50" relative="1" as="geometry">
            <mxPoint x="270" y="470" as="sourcePoint" />
            <mxPoint x="120" y="495" as="targetPoint" />
          </mxGeometry>
        </mxCell>
        <mxCell id="RJ9A-keqmbLxg_G6f0zQ-13" value="Informatique" style="shape=umlActor;verticalLabelPosition=bottom;verticalAlign=top;html=1;strokeWidth=2;" vertex="1" parent="1">
          <mxGeometry x="80" y="690" width="40" height="80" as="geometry" />
        </mxCell>
        <mxCell id="RJ9A-keqmbLxg_G6f0zQ-14" value="" style="endArrow=none;dashed=1;html=1;dashPattern=1 3;strokeWidth=2;rounded=0;" edge="1" parent="1" source="RJ9A-keqmbLxg_G6f0zQ-6" target="RJ9A-keqmbLxg_G6f0zQ-24">
          <mxGeometry width="50" height="50" relative="1" as="geometry">
            <mxPoint x="289" y="724" as="sourcePoint" />
            <mxPoint x="110" y="620" as="targetPoint" />
          </mxGeometry>
        </mxCell>
        <mxCell id="RJ9A-keqmbLxg_G6f0zQ-17" value="&lt;b&gt;Consultation des messages &lt;br&gt;&lt;/b&gt;" style="ellipse;whiteSpace=wrap;html=1;" vertex="1" parent="1">
          <mxGeometry x="540" y="510" width="120" height="60" as="geometry" />
        </mxCell>
        <mxCell id="RJ9A-keqmbLxg_G6f0zQ-18" value="&lt;b&gt;Consultation du calendrier &lt;br&gt;&lt;/b&gt;" style="ellipse;whiteSpace=wrap;html=1;" vertex="1" parent="1">
          <mxGeometry x="420" y="535" width="120" height="60" as="geometry" />
        </mxCell>
        <mxCell id="RJ9A-keqmbLxg_G6f0zQ-19" value="" style="endArrow=none;dashed=1;html=1;rounded=0;entryX=0;entryY=0.5;entryDx=0;entryDy=0;" edge="1" parent="1" target="RJ9A-keqmbLxg_G6f0zQ-11">
          <mxGeometry width="50" height="50" relative="1" as="geometry">
            <mxPoint x="400" y="490" as="sourcePoint" />
            <mxPoint x="430" y="460" as="targetPoint" />
            <Array as="points" />
          </mxGeometry>
        </mxCell>
        <mxCell id="RJ9A-keqmbLxg_G6f0zQ-20" value="" style="endArrow=none;dashed=1;html=1;rounded=0;entryX=1;entryY=1;entryDx=0;entryDy=0;exitX=0;exitY=0.5;exitDx=0;exitDy=0;" edge="1" parent="1" source="RJ9A-keqmbLxg_G6f0zQ-18" target="RJ9A-keqmbLxg_G6f0zQ-6">
          <mxGeometry width="50" height="50" relative="1" as="geometry">
            <mxPoint x="370" y="560" as="sourcePoint" />
            <mxPoint x="400" y="520" as="targetPoint" />
            <Array as="points" />
          </mxGeometry>
        </mxCell>
        <mxCell id="RJ9A-keqmbLxg_G6f0zQ-21" value="" style="endArrow=none;dashed=1;html=1;rounded=0;exitX=1;exitY=0.5;exitDx=0;exitDy=0;entryX=0;entryY=0.5;entryDx=0;entryDy=0;" edge="1" parent="1" source="RJ9A-keqmbLxg_G6f0zQ-6" target="RJ9A-keqmbLxg_G6f0zQ-17">
          <mxGeometry width="50" height="50" relative="1" as="geometry">
            <mxPoint x="400" y="480" as="sourcePoint" />
            <mxPoint x="450" y="430" as="targetPoint" />
            <Array as="points" />
          </mxGeometry>
        </mxCell>
        <mxCell id="RJ9A-keqmbLxg_G6f0zQ-24" value="Administrateur" style="shape=umlActor;verticalLabelPosition=bottom;verticalAlign=top;html=1;strokeWidth=2;" vertex="1" parent="1">
          <mxGeometry x="80" y="570" width="40" height="80" as="geometry" />
        </mxCell>
        <mxCell id="RJ9A-keqmbLxg_G6f0zQ-28" value="" style="endArrow=none;dashed=1;html=1;dashPattern=1 3;strokeWidth=2;rounded=0;exitX=0.086;exitY=0.8;exitDx=0;exitDy=0;exitPerimeter=0;" edge="1" parent="1" source="RJ9A-keqmbLxg_G6f0zQ-6">
          <mxGeometry width="50" height="50" relative="1" as="geometry">
            <mxPoint x="290" y="550" as="sourcePoint" />
            <mxPoint x="100" y="738" as="targetPoint" />
          </mxGeometry>
        </mxCell>
        <mxCell id="RJ9A-keqmbLxg_G6f0zQ-29" value="choix de l&#39;identifiant et du mot de passe" style="ellipse;whiteSpace=wrap;html=1;" vertex="1" parent="1">
          <mxGeometry x="450" y="60" width="140" height="70" as="geometry" />
        </mxCell>
        <mxCell id="RJ9A-keqmbLxg_G6f0zQ-30" value="" style="endArrow=none;dashed=1;html=1;rounded=0;entryX=0;entryY=0.5;entryDx=0;entryDy=0;exitX=1;exitY=0.5;exitDx=0;exitDy=0;" edge="1" parent="1" source="RJ9A-keqmbLxg_G6f0zQ-29" target="2lb5YKG_LQ6kQNG7Jbou-24">
          <mxGeometry width="50" height="50" relative="1" as="geometry">
            <mxPoint x="600" y="85" as="sourcePoint" />
            <mxPoint x="670" y="70" as="targetPoint" />
          </mxGeometry>
        </mxCell>
        <mxCell id="RJ9A-keqmbLxg_G6f0zQ-31" value="&lt;b&gt;Consultation des actualités &lt;br&gt;&lt;/b&gt;" style="ellipse;whiteSpace=wrap;html=1;" vertex="1" parent="1">
          <mxGeometry x="450" y="600" width="120" height="60" as="geometry" />
        </mxCell>
        <mxCell id="RJ9A-keqmbLxg_G6f0zQ-33" value="" style="endArrow=none;dashed=1;html=1;rounded=0;exitX=0;exitY=0.5;exitDx=0;exitDy=0;entryX=1;entryY=1;entryDx=0;entryDy=0;" edge="1" parent="1" source="RJ9A-keqmbLxg_G6f0zQ-31" target="RJ9A-keqmbLxg_G6f0zQ-6">
          <mxGeometry width="50" height="50" relative="1" as="geometry">
            <mxPoint x="380" y="573" as="sourcePoint" />
            <mxPoint x="400" y="550" as="targetPoint" />
            <Array as="points" />
          </mxGeometry>
        </mxCell>
        <mxCell id="RJ9A-keqmbLxg_G6f0zQ-35" value="&lt;b&gt;Deconnexion&lt;/b&gt;" style="ellipse;whiteSpace=wrap;html=1;" vertex="1" parent="1">
          <mxGeometry x="370" y="710" width="140" height="70" as="geometry" />
        </mxCell>
        <mxCell id="RJ9A-keqmbLxg_G6f0zQ-36" value="&lt;b&gt;Consultation des actualités &lt;br&gt;&lt;/b&gt;" style="ellipse;whiteSpace=wrap;html=1;" vertex="1" parent="1">
          <mxGeometry x="510" y="395" width="120" height="60" as="geometry" />
        </mxCell>
        <mxCell id="RJ9A-keqmbLxg_G6f0zQ-37" value="" style="endArrow=none;dashed=1;html=1;rounded=0;entryX=0;entryY=0.5;entryDx=0;entryDy=0;" edge="1" parent="1" source="RJ9A-keqmbLxg_G6f0zQ-6" target="RJ9A-keqmbLxg_G6f0zQ-36">
          <mxGeometry width="50" height="50" relative="1" as="geometry">
            <mxPoint x="388" y="480" as="sourcePoint" />
            <mxPoint x="420" y="469" as="targetPoint" />
            <Array as="points" />
          </mxGeometry>
        </mxCell>
        <mxCell id="RJ9A-keqmbLxg_G6f0zQ-38" value="" style="endArrow=none;dashed=1;html=1;rounded=0;exitX=0.5;exitY=0;exitDx=0;exitDy=0;entryX=1;entryY=1;entryDx=0;entryDy=0;" edge="1" parent="1" source="RJ9A-keqmbLxg_G6f0zQ-35">
          <mxGeometry width="50" height="50" relative="1" as="geometry">
            <mxPoint x="420" y="640" as="sourcePoint" />
            <mxPoint x="369" y="550" as="targetPoint" />
            <Array as="points" />
          </mxGeometry>
        </mxCell>
      </root>
    </mxGraphModel>
  </diagram>
</mxfile>
